// -*- lsst-c++ -*-

/* 
 * LSST Data Management System
 * Copyright 2008, 2009, 2010 LSST Corporation.
 * 
 * This product includes software developed by the
 * LSST Project (http://www.lsst.org/).
 *
 * This program is free software: you can redistribute it and/or modify
 * it under the terms of the GNU General Public License as published by
 * the Free Software Foundation, either version 3 of the License, or
 * (at your option) any later version.
 * 
 * This program is distributed in the hope that it will be useful,
 * but WITHOUT ANY WARRANTY; without even the implied warranty of
 * MERCHANTABILITY or FITNESS FOR A PARTICULAR PURPOSE.  See the
 * GNU General Public License for more details.
 * 
 * You should have received a copy of the LSST License Statement and 
 * the GNU General Public License along with this program.  If not, 
 * see <http://www.lsstcorp.org/LegalNotices/>.
 */
 
%define detectionLib_DOCSTRING
"
Python interface to lsst::afw::detection classes
"
%enddef

%feature("autodoc", "1");
%module(package="lsst.afw.detection", docstring=detectionLib_DOCSTRING) detectionLib

// Suppress swig complaints
// I had trouble getting %warnfilter to work; hence the pragmas
#pragma SWIG nowarn=314                 // print is a python keyword (--> _print)
#pragma SWIG nowarn=362                 // operator=  ignored

%{
#include "lsst/daf/base.h"
#include "lsst/pex/logging.h"
#include "lsst/daf/persistence.h"
#include "lsst/pex/policy.h"
#include "lsst/afw/geom.h"
#include "lsst/afw/geom/ellipses.h"
#include "lsst/afw/cameraGeom.h"
#include "lsst/afw/image.h"
#include "lsst/afw/math.h"

#define PY_ARRAY_UNIQUE_SYMBOL LSST_AFW_DETECTION_NUMPY_ARRAY_API
#include "numpy/arrayobject.h"
#include "ndarray/swig.h"
#include "ndarray/swig/eigen.h"
%}

%init %{
    import_array();
%}

%include "std_string.i"

%include "lsst/p_lsstSwig.i"
%include "lsst/base.h"

%import  "lsst/afw/utils.i" 
%include "lsst/daf/base/persistenceMacros.i"

%import "lsst/afw/image/imageLib.i"
%import "lsst/afw/geom/geomLib.i"
%import "lsst/afw/geom/ellipses/ellipsesLib.i"
%import "lsst/afw/math/mathLib.i"
%include "ndarray.i"

%lsst_exceptions()

%include "footprints.i"
%include "psf.i"
%include "footprintset.i"

%pythoncode %{
from lsst.afw.geom import Span
%}
